Categories:Development
License:WTFPL
Web Site:
Source Code:https://github.com/Gittner/OSMBugs
Issue Tracker:https://github.com/Gittner/OSMBugs/issues
Changelog:https://github.com/ChristopherGittner/OSMBugs/blob/HEAD/CHANGELOG.md

Auto Name:OSMBugs
Summary:View OpenStreetMap errors
Description:
Display bugs and errors from various quality assurance services on a map.

Supported Platforms:

* Notes
* Keepright
* Mapdust
* Osmose
.

Repo Type:git
Repo:https://github.com/Gittner/OSMBugs

Build:0-7-0,14
    commit=0-7-0
    subdir=app
    gradle=yes

Build:0-8-0,15
    commit=0-8-0
    subdir=app
    gradle=yes

Build:0-8-1,16
    commit=0-8-1
    subdir=app
    gradle=yes

Build:0-8-2,17
    commit=0-8-2
    subdir=app
    gradle=yes

Build:0-8-3,18
    commit=0-8-3
    subdir=app
    gradle=yes

Build:0-9-0,19
    commit=0-9-0
    subdir=app
    gradle=yes

Build:0-9-1,20
    commit=0-9-1
    subdir=app
    gradle=yes

Build:0-9-3,22
    disable=vanished material-dialogs
    commit=0-9-3
    subdir=app
    gradle=yes

Build:0-9-4,23
    commit=0-9-4
    subdir=app
    gradle=yes

Build:0-9-5,24
    commit=0-9-5
    subdir=app
    gradle=yes

Build:0-9-6,25
    commit=0-9-6
    subdir=app
    gradle=yes

Build:0-9-8,27
    commit=0-9-8
    subdir=app
    gradle=yes

Build:1-1-0,29
    commit=1-1-0
    subdir=app
    gradle=yes

Build:1-1-1,30
    commit=1-1-1
    subdir=app
    gradle=yes

Build:1-1-3,32
    commit=1-1-3
    subdir=app
    gradle=yes

Build:1-1-4,33
    commit=1-1-4
    subdir=app
    gradle=yes

Build:1-1-5,34
    commit=1-1-5
    subdir=app
    gradle=yes

Build:1-1-6,35
    commit=1-1-6
    subdir=app
    gradle=yes

Build:1-2-0,36
    commit=1-2-0
    subdir=app
    gradle=yes

Build:1-2-1,37
    commit=1-2-1
    subdir=app
    gradle=yes

Build:1-2-2,38
    commit=1-2-2
    subdir=app
    gradle=yes

Auto Update Mode:Version %v
Update Check Mode:Tags
Current Version:1-2-2
Current Version Code:38
